\select@language {spanish}
\contentsline {chapter}{\numberline {1}cmucam}{1}{chapter.1}
\contentsline {section}{\numberline {1.1}Antecedente}{1}{section.1.1}
\contentsline {chapter}{\numberline {2}Conclusión}{3}{chapter.2}
