\relax 
\providecommand\hyper@newdestlabel[2]{}
\citation{ch101}
\citation{ch102}
\citation{jdbc01}
\citation{jdbc02}
\citation{myBatis01}
\@writefile{toc}{\contentsline {chapter}{\numberline {2}Tipos de persistencia de Objetos Java en Base de Datos Relacionales}{3}{chapter.2}}
\@writefile{lof}{\addvspace {10\p@ }}
\@writefile{lot}{\addvspace {10\p@ }}
\@writefile{toc}{\contentsline {section}{\numberline {2.1}Java Database Connectivity (JDBC)}{3}{section.2.1}}
\citation{jdo01}
\citation{jdo04}
\citation{jdo05}
\citation{jdo02}
\citation{jdo02}
\citation{jdo03}
\citation{jpa01}
\@writefile{toc}{\contentsline {section}{\numberline {2.2}MyBatis}{4}{section.2.2}}
\@writefile{toc}{\contentsline {section}{\numberline {2.3}Java Data Objects (JDO)}{4}{section.2.3}}
\@writefile{toc}{\contentsline {section}{\numberline {2.4}Java Persistent API (JPA)}{4}{section.2.4}}
\@setckpt{tex/2_work/02_03_tipos_persistencia}{
\setcounter{page}{5}
\setcounter{equation}{0}
\setcounter{enumi}{0}
\setcounter{enumii}{0}
\setcounter{enumiii}{0}
\setcounter{enumiv}{0}
\setcounter{footnote}{2}
\setcounter{mpfootnote}{0}
\setcounter{part}{0}
\setcounter{chapter}{2}
\setcounter{section}{4}
\setcounter{subsection}{0}
\setcounter{subsubsection}{0}
\setcounter{paragraph}{0}
\setcounter{subparagraph}{0}
\setcounter{figure}{0}
\setcounter{table}{0}
\setcounter{parentequation}{0}
\setcounter{Item}{0}
\setcounter{Hfootnote}{2}
\setcounter{Hy@AnnotLevel}{0}
\setcounter{bookmark@seq@number}{6}
\setcounter{lstnumber}{1}
\setcounter{section@level}{1}
\setcounter{lstlisting}{0}
}
