\relax 
\providecommand\hyper@newdestlabel[2]{}
\citation{alt01}
\citation{alt02}
\citation{alt03}
\@writefile{toc}{\contentsline {chapter}{\numberline {3}Implementaciones de JPA}{5}{chapter.3}}
\@writefile{lof}{\addvspace {10\p@ }}
\@writefile{lot}{\addvspace {10\p@ }}
\@writefile{toc}{\contentsline {section}{\numberline {3.1}DataNucleus}{5}{section.3.1}}
\@writefile{toc}{\contentsline {section}{\numberline {3.2}Hibernate}{5}{section.3.2}}
\citation{alt04}
\citation{alt05}
\citation{alt06}
\citation{alt10}
\citation{alt07}
\citation{alt07}
\citation{alt09}
\citation{alt10}
\citation{alt11}
\@writefile{toc}{\contentsline {section}{\numberline {3.3}OpenJPA}{6}{section.3.3}}
\@writefile{toc}{\contentsline {section}{\numberline {3.4}Oracle Toplink}{6}{section.3.4}}
\@writefile{toc}{\contentsline {section}{\numberline {3.5}EclipseLink}{6}{section.3.5}}
\@writefile{toc}{\contentsline {section}{\numberline {3.6}ObjectDB}{6}{section.3.6}}
\@setckpt{tex/2_work/03_implementaciones}{
\setcounter{page}{7}
\setcounter{equation}{0}
\setcounter{enumi}{0}
\setcounter{enumii}{0}
\setcounter{enumiii}{0}
\setcounter{enumiv}{0}
\setcounter{footnote}{0}
\setcounter{mpfootnote}{0}
\setcounter{part}{0}
\setcounter{chapter}{3}
\setcounter{section}{6}
\setcounter{subsection}{0}
\setcounter{subsubsection}{0}
\setcounter{paragraph}{0}
\setcounter{subparagraph}{0}
\setcounter{figure}{0}
\setcounter{table}{0}
\setcounter{parentequation}{0}
\setcounter{Item}{0}
\setcounter{Hfootnote}{2}
\setcounter{Hy@AnnotLevel}{0}
\setcounter{bookmark@seq@number}{13}
\setcounter{lstnumber}{1}
\setcounter{section@level}{1}
\setcounter{lstlisting}{0}
}
