\relax 
\providecommand\hyper@newdestlabel[2]{}
\@setckpt{tex/2_work/03_jpa_conceptos}{
\setcounter{page}{5}
\setcounter{equation}{0}
\setcounter{enumi}{0}
\setcounter{enumii}{0}
\setcounter{enumiii}{0}
\setcounter{enumiv}{0}
\setcounter{footnote}{2}
\setcounter{mpfootnote}{0}
\setcounter{part}{0}
\setcounter{chapter}{2}
\setcounter{section}{4}
\setcounter{subsection}{0}
\setcounter{subsubsection}{0}
\setcounter{paragraph}{0}
\setcounter{subparagraph}{0}
\setcounter{figure}{0}
\setcounter{table}{0}
\setcounter{parentequation}{0}
\setcounter{Item}{0}
\setcounter{Hfootnote}{2}
\setcounter{Hy@AnnotLevel}{0}
\setcounter{bookmark@seq@number}{6}
\setcounter{lstnumber}{1}
\setcounter{section@level}{1}
\setcounter{lstlisting}{0}
}
