\relax 
\providecommand\hyper@newdestlabel[2]{}
\citation{jpa02}
\@writefile{toc}{\contentsline {chapter}{\numberline {3}Conceptos básicos en JPA}{6}{chapter.3}}
\@writefile{lof}{\addvspace {10\p@ }}
\@writefile{lot}{\addvspace {10\p@ }}
\@writefile{toc}{\contentsline {section}{\numberline {3.1}Descripción General}{6}{section.3.1}}
\citation{jpa03}
\citation{jpa07}
\@writefile{toc}{\contentsline {section}{\numberline {3.2}Conceptos Básicos}{7}{section.3.2}}
\@writefile{toc}{\contentsline {subsection}{\numberline {3.2.1}Persistencia}{7}{subsection.3.2.1}}
\@writefile{toc}{\contentsline {subsection}{\numberline {3.2.2}Objeto Persistente}{7}{subsection.3.2.2}}
\@writefile{toc}{\contentsline {subsection}{\numberline {3.2.3}Contexto de Persistencia}{7}{subsection.3.2.3}}
\@writefile{toc}{\contentsline {subsection}{\numberline {3.2.4}Unidad de Persistencia}{7}{subsection.3.2.4}}
\@writefile{toc}{\contentsline {subsection}{\numberline {3.2.5}Transacciones JTA}{8}{subsection.3.2.5}}
\@writefile{toc}{\contentsline {subsection}{\numberline {3.2.6}Transacciones Locales}{8}{subsection.3.2.6}}
\citation{jpa04}
\citation{jpa03}
\citation{jpa05}
\citation{jpa06}
\@writefile{toc}{\contentsline {section}{\numberline {3.3}Mapeo de datos}{9}{section.3.3}}
\@writefile{toc}{\contentsline {section}{\numberline {3.4}Querys:}{10}{section.3.4}}
\@writefile{toc}{\contentsline {subsection}{\numberline {3.4.1}Query}{10}{subsection.3.4.1}}
\@writefile{toc}{\contentsline {subsection}{\numberline {3.4.2}CRITERIA Query}{10}{subsection.3.4.2}}
\@writefile{toc}{\contentsline {subsection}{\numberline {3.4.3}TypedQuery<T> e}{10}{subsection.3.4.3}}
\@setckpt{tex/2_work/03_jpa_conceptos_basicos}{
\setcounter{page}{11}
\setcounter{equation}{0}
\setcounter{enumi}{0}
\setcounter{enumii}{0}
\setcounter{enumiii}{0}
\setcounter{enumiv}{0}
\setcounter{footnote}{1}
\setcounter{mpfootnote}{0}
\setcounter{part}{0}
\setcounter{chapter}{3}
\setcounter{section}{4}
\setcounter{subsection}{3}
\setcounter{subsubsection}{0}
\setcounter{paragraph}{0}
\setcounter{subparagraph}{0}
\setcounter{figure}{0}
\setcounter{table}{0}
\setcounter{parentequation}{0}
\setcounter{Item}{0}
\setcounter{Hfootnote}{3}
\setcounter{Hy@AnnotLevel}{0}
\setcounter{bookmark@seq@number}{20}
\setcounter{lstnumber}{14}
\setcounter{section@level}{2}
\setcounter{lstlisting}{0}
}
