\relax 
\providecommand\hyper@newdestlabel[2]{}
\citation{jdo01}
\citation{jdo02}
\citation{jdo02}
\citation{jdo03}
\citation{jpa01}
\citation{tp0101}
\@writefile{toc}{\contentsline {chapter}{\numberline {3}Persistencia en Java}{4}{chapter.3}}
\@writefile{lof}{\addvspace {10\p@ }}
\@writefile{lot}{\addvspace {10\p@ }}
\@writefile{toc}{\contentsline {section}{\numberline {3.1}Uso del JDK}{4}{section.3.1}}
\@writefile{toc}{\contentsline {section}{\numberline {3.2}JDO}{4}{section.3.2}}
\@writefile{toc}{\contentsline {section}{\numberline {3.3}MyBatis}{4}{section.3.3}}
\@writefile{toc}{\contentsline {section}{\numberline {3.4}JPA}{4}{section.3.4}}
\@setckpt{tex/2_work/03_persistencia_java}{
\setcounter{page}{6}
\setcounter{equation}{0}
\setcounter{enumi}{0}
\setcounter{enumii}{0}
\setcounter{enumiii}{0}
\setcounter{enumiv}{0}
\setcounter{footnote}{0}
\setcounter{mpfootnote}{0}
\setcounter{part}{0}
\setcounter{chapter}{3}
\setcounter{section}{4}
\setcounter{subsection}{0}
\setcounter{subsubsection}{0}
\setcounter{paragraph}{0}
\setcounter{subparagraph}{0}
\setcounter{figure}{0}
\setcounter{table}{0}
\setcounter{parentequation}{0}
\setcounter{Item}{0}
\setcounter{Hfootnote}{0}
\setcounter{Hy@AnnotLevel}{0}
\setcounter{bookmark@seq@number}{7}
\setcounter{lstnumber}{1}
\setcounter{section@level}{1}
\setcounter{lstlisting}{0}
}
