\relax 
\providecommand\hyper@newdestlabel[2]{}
\citation{alt01}
\citation{alt02}
\citation{alt03}
\@writefile{toc}{\contentsline {chapter}{\numberline {4}Proveedores de Persistencia JPA}{11}{chapter.4}}
\@writefile{lof}{\addvspace {10\p@ }}
\@writefile{lot}{\addvspace {10\p@ }}
\@writefile{toc}{\contentsline {section}{\numberline {4.1}DataNucleus}{11}{section.4.1}}
\@writefile{toc}{\contentsline {section}{\numberline {4.2}Hibernate}{11}{section.4.2}}
\citation{alt04}
\citation{alt05}
\citation{alt06}
\citation{alt10}
\citation{alt07}
\citation{alt07}
\citation{alt09}
\citation{alt10}
\citation{alt11}
\@writefile{toc}{\contentsline {section}{\numberline {4.3}OpenJPA}{12}{section.4.3}}
\@writefile{toc}{\contentsline {section}{\numberline {4.4}Oracle Toplink}{12}{section.4.4}}
\@writefile{toc}{\contentsline {section}{\numberline {4.5}EclipseLink}{12}{section.4.5}}
\@writefile{toc}{\contentsline {section}{\numberline {4.6}ObjectDB}{12}{section.4.6}}
\@setckpt{tex/2_work/04_implementaciones}{
\setcounter{page}{14}
\setcounter{equation}{0}
\setcounter{enumi}{0}
\setcounter{enumii}{0}
\setcounter{enumiii}{0}
\setcounter{enumiv}{0}
\setcounter{footnote}{0}
\setcounter{mpfootnote}{0}
\setcounter{part}{0}
\setcounter{chapter}{4}
\setcounter{section}{6}
\setcounter{subsection}{0}
\setcounter{subsubsection}{0}
\setcounter{paragraph}{0}
\setcounter{subparagraph}{0}
\setcounter{figure}{0}
\setcounter{table}{0}
\setcounter{parentequation}{0}
\setcounter{Item}{0}
\setcounter{Hfootnote}{3}
\setcounter{Hy@AnnotLevel}{0}
\setcounter{bookmark@seq@number}{27}
\setcounter{lstnumber}{14}
\setcounter{section@level}{1}
\setcounter{lstlisting}{0}
}
