\relax 
\providecommand\hyper@newdestlabel[2]{}
\citation{comp01}
\citation{comp02}
\@writefile{toc}{\contentsline {chapter}{\numberline {4}Estudios Comparativos}{7}{chapter.4}}
\@writefile{lof}{\addvspace {10\p@ }}
\@writefile{lot}{\addvspace {10\p@ }}
\@writefile{toc}{\contentsline {section}{\numberline {4.1}Santiago Rodríguez}{7}{section.4.1}}
\citation{comp03}
\@writefile{toc}{\contentsline {section}{\numberline {4.2}ObjectDB Software Ltd.}{8}{section.4.2}}
\citation{tp0101}
\@writefile{toc}{\contentsline {section}{\numberline {4.3}Lukás Sembera}{9}{section.4.3}}
\@writefile{toc}{\contentsline {section}{\numberline {4.4}DZone}{9}{section.4.4}}
\@setckpt{tex/2_work/04_recopilación_estudios_comparativos}{
\setcounter{page}{11}
\setcounter{equation}{0}
\setcounter{enumi}{0}
\setcounter{enumii}{0}
\setcounter{enumiii}{0}
\setcounter{enumiv}{0}
\setcounter{footnote}{8}
\setcounter{mpfootnote}{0}
\setcounter{part}{0}
\setcounter{chapter}{4}
\setcounter{section}{4}
\setcounter{subsection}{0}
\setcounter{subsubsection}{0}
\setcounter{paragraph}{0}
\setcounter{subparagraph}{0}
\setcounter{figure}{0}
\setcounter{table}{0}
\setcounter{parentequation}{0}
\setcounter{Item}{0}
\setcounter{Hfootnote}{10}
\setcounter{Hy@AnnotLevel}{0}
\setcounter{bookmark@seq@number}{18}
\setcounter{lstnumber}{1}
\setcounter{section@level}{1}
\setcounter{lstlisting}{0}
}
