\relax 
\providecommand\hyper@newdestlabel[2]{}
\@writefile{toc}{\contentsline {chapter}{\numberline {5}Criterios y Pruebas}{11}{chapter.5}}
\@writefile{lof}{\addvspace {10\p@ }}
\@writefile{lot}{\addvspace {10\p@ }}
\@writefile{toc}{\contentsline {section}{\numberline {5.1}Criterios}{11}{section.5.1}}
\citation{comp03}
\@writefile{toc}{\contentsline {section}{\numberline {5.2}Modelo representativo}{13}{section.5.2}}
\@writefile{toc}{\contentsline {section}{\numberline {5.3}Descripción Pruebas comparativas}{14}{section.5.3}}
\@writefile{toc}{\contentsline {section}{\numberline {5.4}Descripciones de hardware software}{14}{section.5.4}}
\@writefile{toc}{\contentsline {section}{\numberline {5.5}Resultados}{15}{section.5.5}}
\@setckpt{tex/2_work/05_análisis_comparativo}{
\setcounter{page}{16}
\setcounter{equation}{0}
\setcounter{enumi}{0}
\setcounter{enumii}{0}
\setcounter{enumiii}{0}
\setcounter{enumiv}{0}
\setcounter{footnote}{0}
\setcounter{mpfootnote}{0}
\setcounter{part}{0}
\setcounter{chapter}{5}
\setcounter{section}{5}
\setcounter{subsection}{0}
\setcounter{subsubsection}{0}
\setcounter{paragraph}{0}
\setcounter{subparagraph}{0}
\setcounter{figure}{0}
\setcounter{table}{0}
\setcounter{parentequation}{0}
\setcounter{Item}{0}
\setcounter{Hfootnote}{10}
\setcounter{Hy@AnnotLevel}{0}
\setcounter{bookmark@seq@number}{24}
\setcounter{lstnumber}{1}
\setcounter{section@level}{1}
\setcounter{lstlisting}{0}
}
