\relax 
\providecommand\hyper@newdestlabel[2]{}
\citation{comp01}
\citation{comp02}
\@writefile{toc}{\contentsline {chapter}{\numberline {5}Estudios Comparativos}{14}{chapter.5}}
\@writefile{lof}{\addvspace {10\p@ }}
\@writefile{lot}{\addvspace {10\p@ }}
\@writefile{toc}{\contentsline {section}{\numberline {5.1}Santiago Rodríguez}{14}{section.5.1}}
\citation{comp03}
\@writefile{toc}{\contentsline {section}{\numberline {5.2}ObjectDB Software Ltd.}{15}{section.5.2}}
\citation{tp0101}
\@writefile{toc}{\contentsline {section}{\numberline {5.3}Lukás Sembera}{16}{section.5.3}}
\@writefile{toc}{\contentsline {section}{\numberline {5.4}DZone}{16}{section.5.4}}
\@setckpt{tex/2_work/05_recopilación_estudios_comparativos}{
\setcounter{page}{18}
\setcounter{equation}{0}
\setcounter{enumi}{0}
\setcounter{enumii}{0}
\setcounter{enumiii}{0}
\setcounter{enumiv}{0}
\setcounter{footnote}{8}
\setcounter{mpfootnote}{0}
\setcounter{part}{0}
\setcounter{chapter}{5}
\setcounter{section}{4}
\setcounter{subsection}{0}
\setcounter{subsubsection}{0}
\setcounter{paragraph}{0}
\setcounter{subparagraph}{0}
\setcounter{figure}{0}
\setcounter{table}{0}
\setcounter{parentequation}{0}
\setcounter{Item}{0}
\setcounter{Hfootnote}{11}
\setcounter{Hy@AnnotLevel}{0}
\setcounter{bookmark@seq@number}{32}
\setcounter{lstnumber}{14}
\setcounter{section@level}{1}
\setcounter{lstlisting}{0}
}
