\relax 
\providecommand\hyper@newdestlabel[2]{}
\@writefile{toc}{\contentsline {chapter}{\numberline {6}Criterios y Pruebas}{18}{chapter.6}}
\@writefile{lof}{\addvspace {10\p@ }}
\@writefile{lot}{\addvspace {10\p@ }}
\@writefile{toc}{\contentsline {section}{\numberline {6.1}Criterios}{18}{section.6.1}}
\@writefile{toc}{\contentsline {section}{\numberline {6.2}Criterios}{18}{section.6.2}}
\citation{comp03}
\@writefile{toc}{\contentsline {section}{\numberline {6.3}Modelo representativo}{20}{section.6.3}}
\@writefile{toc}{\contentsline {section}{\numberline {6.4}Descripción Pruebas comparativas}{21}{section.6.4}}
\@writefile{toc}{\contentsline {section}{\numberline {6.5}Descripciones de hardware software}{21}{section.6.5}}
\@writefile{toc}{\contentsline {section}{\numberline {6.6}Resultados}{22}{section.6.6}}
\@setckpt{tex/2_work/06_análisis_comparativo}{
\setcounter{page}{23}
\setcounter{equation}{0}
\setcounter{enumi}{0}
\setcounter{enumii}{0}
\setcounter{enumiii}{0}
\setcounter{enumiv}{0}
\setcounter{footnote}{0}
\setcounter{mpfootnote}{0}
\setcounter{part}{0}
\setcounter{chapter}{6}
\setcounter{section}{6}
\setcounter{subsection}{0}
\setcounter{subsubsection}{0}
\setcounter{paragraph}{0}
\setcounter{subparagraph}{0}
\setcounter{figure}{0}
\setcounter{table}{0}
\setcounter{parentequation}{0}
\setcounter{Item}{0}
\setcounter{Hfootnote}{11}
\setcounter{Hy@AnnotLevel}{0}
\setcounter{bookmark@seq@number}{39}
\setcounter{lstnumber}{14}
\setcounter{section@level}{1}
\setcounter{lstlisting}{0}
}
