\relax 
\providecommand\hyper@newdestlabel[2]{}
\@writefile{toc}{\contentsline {chapter}{\numberline {6}Diseño de la solución de persistencia para el Sistema de Gestión de Eventos y Usuarios}{16}{chapter.6}}
\@writefile{lof}{\addvspace {10\p@ }}
\@writefile{lot}{\addvspace {10\p@ }}
\@writefile{toc}{\contentsline {section}{\numberline {6.1}Elección de la implementación}{16}{section.6.1}}
\@writefile{toc}{\contentsline {section}{\numberline {6.2}Esquema de datos}{16}{section.6.2}}
\@writefile{toc}{\contentsline {section}{\numberline {6.3}Convesión de datos}{16}{section.6.3}}
\@writefile{toc}{\contentsline {section}{\numberline {6.4}Funciones para el acceso de datos}{16}{section.6.4}}
\citation{cap6_01}
\@setckpt{tex/2_work/06_diseño_del_sistema}{
\setcounter{page}{18}
\setcounter{equation}{0}
\setcounter{enumi}{0}
\setcounter{enumii}{0}
\setcounter{enumiii}{0}
\setcounter{enumiv}{0}
\setcounter{footnote}{0}
\setcounter{mpfootnote}{0}
\setcounter{part}{0}
\setcounter{chapter}{6}
\setcounter{section}{4}
\setcounter{subsection}{0}
\setcounter{subsubsection}{0}
\setcounter{paragraph}{0}
\setcounter{subparagraph}{0}
\setcounter{figure}{0}
\setcounter{table}{0}
\setcounter{parentequation}{0}
\setcounter{Item}{0}
\setcounter{Hfootnote}{10}
\setcounter{Hy@AnnotLevel}{0}
\setcounter{bookmark@seq@number}{29}
\setcounter{lstnumber}{1}
\setcounter{section@level}{1}
\setcounter{lstlisting}{0}
}
