\relax 
\providecommand\hyper@newdestlabel[2]{}
\@writefile{toc}{\contentsline {chapter}{\numberline {7}Diseño de la solución de persistencia para el Sistema de Gestión de Eventos y Usuarios}{23}{chapter.7}}
\@writefile{lof}{\addvspace {10\p@ }}
\@writefile{lot}{\addvspace {10\p@ }}
\@writefile{toc}{\contentsline {section}{\numberline {7.1}Elección de la implementación}{23}{section.7.1}}
\@writefile{toc}{\contentsline {section}{\numberline {7.2}Esquema de datos}{23}{section.7.2}}
\@writefile{toc}{\contentsline {section}{\numberline {7.3}Convesión de datos}{23}{section.7.3}}
\@writefile{toc}{\contentsline {section}{\numberline {7.4}Funciones para el acceso de datos}{23}{section.7.4}}
\citation{cap6_01}
\@setckpt{tex/2_work/07_diseño_del_sistema}{
\setcounter{page}{25}
\setcounter{equation}{0}
\setcounter{enumi}{0}
\setcounter{enumii}{0}
\setcounter{enumiii}{0}
\setcounter{enumiv}{0}
\setcounter{footnote}{0}
\setcounter{mpfootnote}{0}
\setcounter{part}{0}
\setcounter{chapter}{7}
\setcounter{section}{4}
\setcounter{subsection}{0}
\setcounter{subsubsection}{0}
\setcounter{paragraph}{0}
\setcounter{subparagraph}{0}
\setcounter{figure}{0}
\setcounter{table}{0}
\setcounter{parentequation}{0}
\setcounter{Item}{0}
\setcounter{Hfootnote}{11}
\setcounter{Hy@AnnotLevel}{0}
\setcounter{bookmark@seq@number}{44}
\setcounter{lstnumber}{14}
\setcounter{section@level}{1}
\setcounter{lstlisting}{0}
}
