\relax 
\providecommand\hyper@newdestlabel[2]{}
\providecommand\HyperFirstAtBeginDocument{\AtBeginDocument}
\HyperFirstAtBeginDocument{\ifx\hyper@anchor\@undefined
\global\let\oldcontentsline\contentsline
\gdef\contentsline#1#2#3#4{\oldcontentsline{#1}{#2}{#3}}
\global\let\oldnewlabel\newlabel
\gdef\newlabel#1#2{\newlabelxx{#1}#2}
\gdef\newlabelxx#1#2#3#4#5#6{\oldnewlabel{#1}{{#2}{#3}}}
\AtEndDocument{\ifx\hyper@anchor\@undefined
\let\contentsline\oldcontentsline
\let\newlabel\oldnewlabel
\fi}
\fi}
\global\let\hyper@last\relax 
\gdef\HyperFirstAtBeginDocument#1{#1}
\providecommand*\HyPL@Entry[1]{}
\catcode `"\active 
\catcode `<\active 
\catcode `>\active 
\@nameuse{es@quoting}
\@input{tex/1_previous/0_cover.aux}
\HyPL@Entry{0<</S/D>>}
\select@language{spanish}
\@writefile{toc}{\select@language{spanish}}
\@writefile{lof}{\select@language{spanish}}
\@writefile{lot}{\select@language{spanish}}
\@input{tex/1_previous/1_agradecimientos.aux}
\HyPL@Entry{1<</S/r>>}
\@input{tex/1_previous/2_dedicatoria.aux}
\HyPL@Entry{2<</S/r>>}
\@input{tex/1_previous/3_resumen.aux}
\@input{tex/1_previous/4_abstract.aux}
\@input{tex/1_previous/5_glosario.aux}
\HyPL@Entry{7<</S/D>>}
\@input{tex/2_work/01_introduccion.aux}
\@input{tex/2_work/02_tipos_persistencia.aux}
\@input{tex/2_work/03_jpa_conceptos_basicos.aux}
\@input{tex/2_work/04_implementaciones.aux}
\@input{tex/2_work/05_recopilación_estudios_comparativos.aux}
\@input{tex/2_work/06_análisis_comparativo.aux}
\@input{tex/2_work/07_diseño_del_sistema.aux}
\@input{tex/2_work/08_evaluación_sgeu.aux}
\@input{tex/2_work/09_conclusion.aux}
\@input{tex/3_next/1_referencias.aux}
\@input{tex/3_next/2_anexo_1.aux}
