\relax 
\@writefile{toc}{\contentsline {chapter}{\numberline {3}Mahalanovis}{6}{chapter.3}}
\@writefile{lof}{\addvspace {10\p@ }}
\@writefile{lot}{\addvspace {10\p@ }}
\@writefile{toc}{\contentsline {section}{\numberline {3.1}Teor\IeC {\'\i }a}{6}{section.3.1}}
\@writefile{toc}{\contentsline {section}{\numberline {3.2}Com}{6}{section.3.2}}
\@writefile{toc}{\contentsline {section}{\numberline {3.3}funcionamiento}{6}{section.3.3}}
\@setckpt{contenido/2_trabajo/gui_maha}{
\setcounter{page}{8}
\setcounter{equation}{0}
\setcounter{enumi}{3}
\setcounter{enumii}{0}
\setcounter{enumiii}{0}
\setcounter{enumiv}{0}
\setcounter{footnote}{0}
\setcounter{mpfootnote}{0}
\setcounter{part}{0}
\setcounter{chapter}{3}
\setcounter{section}{3}
\setcounter{subsection}{0}
\setcounter{subsubsection}{0}
\setcounter{paragraph}{0}
\setcounter{subparagraph}{0}
\setcounter{figure}{0}
\setcounter{table}{0}
\setcounter{parentequation}{0}
\setcounter{Item}{3}
\setcounter{Hfootnote}{0}
\setcounter{lpart}{0}
\setcounter{lchapter}{5}
\setcounter{lsection}{0}
\setcounter{lsubsection}{0}
\setcounter{lsubsubsection}{0}
\setcounter{lparagraph}{0}
\setcounter{lsubparagraph}{0}
\setcounter{lsubsubparagraph}{0}
\setcounter{lstnumber}{2}
\setcounter{section@level}{1}
\setcounter{lstlisting}{0}
}
