\relax 
\@writefile{toc}{\contentsline {chapter}{\numberline {2}Cmucam GUI}{3}{chapter.2}}
\@writefile{lof}{\addvspace {10\p@ }}
\@writefile{lot}{\addvspace {10\p@ }}
\@writefile{toc}{\contentsline {section}{\numberline {2.1}Antecedente}{3}{section.2.1}}
\@writefile{toc}{\contentsline {section}{\numberline {2.2}C\IeC {\'o}digo personal}{3}{section.2.2}}
\@writefile{toc}{\contentsline {section}{\numberline {2.3}Uso}{3}{section.2.3}}
\@writefile{toc}{\contentsline {section}{\numberline {2.4}debug}{5}{section.2.4}}
\@writefile{toc}{\contentsline {section}{\numberline {2.5}interfaz}{5}{section.2.5}}
\@setckpt{contenido/2_trabajo/gui_cmucam}{
\setcounter{page}{6}
\setcounter{equation}{0}
\setcounter{enumi}{3}
\setcounter{enumii}{0}
\setcounter{enumiii}{0}
\setcounter{enumiv}{0}
\setcounter{footnote}{0}
\setcounter{mpfootnote}{0}
\setcounter{part}{0}
\setcounter{chapter}{2}
\setcounter{section}{5}
\setcounter{subsection}{0}
\setcounter{subsubsection}{0}
\setcounter{paragraph}{0}
\setcounter{subparagraph}{0}
\setcounter{figure}{0}
\setcounter{table}{0}
\setcounter{parentequation}{0}
\setcounter{Item}{3}
\setcounter{Hfootnote}{0}
\setcounter{lpart}{0}
\setcounter{lchapter}{5}
\setcounter{lsection}{0}
\setcounter{lsubsection}{0}
\setcounter{lsubsubsection}{0}
\setcounter{lparagraph}{0}
\setcounter{lsubparagraph}{0}
\setcounter{lsubsubparagraph}{0}
\setcounter{lstnumber}{2}
\setcounter{section@level}{1}
\setcounter{lstlisting}{0}
}
