\relax 
\providecommand\hyper@newdestlabel[2]{}
\bibcite{intro04}{1}
\bibcite{intro03}{2}
\bibcite{intro05}{3}
\bibcite{jdbc01}{4}
\bibcite{jdbc02}{5}
\bibcite{myBatis01}{6}
\bibcite{jdo01}{7}
\bibcite{jdo04}{8}
\bibcite{jdo05}{9}
\bibcite{jdo02}{10}
\bibcite{jdo03}{11}
\bibcite{jpa01}{12}
\bibcite{jpa02}{13}
\bibcite{jpa03}{14}
\bibcite{jpa04}{15}
\bibcite{jpa05}{16}
\bibcite{jpa06}{17}
\bibcite{jpa07}{18}
\bibcite{alt01}{19}
\bibcite{alt02}{20}
\bibcite{alt03}{21}
\bibcite{alt04}{22}
\bibcite{alt05}{23}
\bibcite{alt06}{24}
\bibcite{alt07}{25}
\bibcite{alt08}{26}
\bibcite{alt09}{27}
\bibcite{alt10}{28}
\bibcite{alt11}{29}
\bibcite{comp01}{30}
\bibcite{comp02}{31}
\bibcite{comp03}{32}
\bibcite{les85}{33}
\bibcite{tp0101}{34}
\bibcite{ch101}{35}
\bibcite{ch102}{36}
\bibcite{ch103}{37}
\bibcite{ch104}{38}
\bibcite{ch105}{39}
\bibcite{cap6_01}{40}
\@setckpt{tex/3_next/1_referencias}{
\setcounter{page}{31}
\setcounter{equation}{0}
\setcounter{enumi}{0}
\setcounter{enumii}{0}
\setcounter{enumiii}{0}
\setcounter{enumiv}{40}
\setcounter{footnote}{0}
\setcounter{mpfootnote}{0}
\setcounter{part}{0}
\setcounter{chapter}{9}
\setcounter{section}{1}
\setcounter{subsection}{0}
\setcounter{subsubsection}{0}
\setcounter{paragraph}{0}
\setcounter{subparagraph}{0}
\setcounter{figure}{0}
\setcounter{table}{0}
\setcounter{parentequation}{0}
\setcounter{Item}{0}
\setcounter{Hfootnote}{11}
\setcounter{Hy@AnnotLevel}{0}
\setcounter{bookmark@seq@number}{49}
\setcounter{lstnumber}{2}
\setcounter{section@level}{1}
\setcounter{lstlisting}{0}
}
