\relax 
\providecommand\hyper@newdestlabel[2]{}
\@setckpt{tex/3_next/2_anexo_1}{
\setcounter{page}{32}
\setcounter{equation}{0}
\setcounter{enumi}{0}
\setcounter{enumii}{0}
\setcounter{enumiii}{0}
\setcounter{enumiv}{40}
\setcounter{footnote}{0}
\setcounter{mpfootnote}{0}
\setcounter{part}{0}
\setcounter{chapter}{9}
\setcounter{section}{1}
\setcounter{subsection}{0}
\setcounter{subsubsection}{0}
\setcounter{paragraph}{0}
\setcounter{subparagraph}{0}
\setcounter{figure}{0}
\setcounter{table}{0}
\setcounter{parentequation}{0}
\setcounter{Item}{0}
\setcounter{Hfootnote}{11}
\setcounter{Hy@AnnotLevel}{0}
\setcounter{bookmark@seq@number}{49}
\setcounter{lstnumber}{2}
\setcounter{section@level}{1}
\setcounter{lstlisting}{0}
}
