\relax 
\providecommand\HyperFirstAtBeginDocument{\AtBeginDocument}
\HyperFirstAtBeginDocument{\ifx\hyper@anchor\@undefined
\global\let\oldcontentsline\contentsline
\gdef\contentsline#1#2#3#4{\oldcontentsline{#1}{#2}{#3}}
\global\let\oldnewlabel\newlabel
\gdef\newlabel#1#2{\newlabelxx{#1}#2}
\gdef\newlabelxx#1#2#3#4#5#6{\oldnewlabel{#1}{{#2}{#3}}}
\AtEndDocument{\ifx\hyper@anchor\@undefined
\let\contentsline\oldcontentsline
\let\newlabel\oldnewlabel
\fi}
\fi}
\global\let\hyper@last\relax 
\gdef\HyperFirstAtBeginDocument#1{#1}
\providecommand\HyField@AuxAddToFields[1]{}
\catcode`"\active
\catcode`<\active
\catcode`>\active
\@nameuse{es@quoting}
\@input{tex/1_previous/0_cover.aux}
\select@language{spanish}
\@writefile{toc}{\select@language{spanish}}
\@writefile{lof}{\select@language{spanish}}
\@writefile{lot}{\select@language{spanish}}
\@input{tex/1_previous/2_dedicatoria.aux}
\@input{tex/1_previous/3_resumen.aux}
\@input{tex/1_previous/4_abstract.aux}
\@input{tex/1_previous/5_glosario.aux}
\@input{tex/1_previous/6_introduccion.aux}
\@input{tex/2_work/estado_arte.aux}
\@input{tex/2_work/z_conclusion.aux}
\@input{tex/3_next/1_referencias.aux}
\@input{tex/3_next/2_anexos.aux}
